{
	"credit": "Made with Blockbench",
	"texture_size": [64, 64],
	"textures": {
		"0": "create_new_age:block/electrical_connector",
		"particle": "create_new_age:block/electrical_connector"
	},
	"elements": [
		{
			"from": [4, 0, 4],
			"to": [12, 3, 12],
			"rotation": {"angle": 0, "axis": "y", "origin": [7, 0, 7]},
			"faces": {
				"north": {"uv": [2, 2, 4, 2.75], "texture": "#0"},
				"east": {"uv": [0, 2, 2, 2.75], "texture": "#0"},
				"south": {"uv": [6, 2, 8, 2.75], "texture": "#0"},
				"west": {"uv": [4, 2, 6, 2.75], "texture": "#0"},
				"up": {"uv": [4, 2, 2, 0], "texture": "#0"},
				"down": {"uv": [6, 0, 4, 2], "texture": "#0"}
			}
		},
		{
			"from": [5, 3, 5],
			"to": [11, 4, 11],
			"rotation": {"angle": 0, "axis": "y", "origin": [7, 2, 7]},
			"faces": {
				"north": {"uv": [6.75, 6.25, 8.25, 6.5], "texture": "#0"},
				"east": {"uv": [5.25, 6.25, 6.75, 6.5], "texture": "#0"},
				"south": {"uv": [9.75, 6.25, 11.25, 6.5], "texture": "#0"},
				"west": {"uv": [8.25, 6.25, 9.75, 6.5], "texture": "#0"},
				"up": {"uv": [8.25, 6.25, 6.75, 4.75], "texture": "#0"},
				"down": {"uv": [9.75, 4.75, 8.25, 6.25], "texture": "#0"}
			}
		},
		{
			"from": [4.5, 4, 4.5],
			"to": [11.5, 5, 11.5],
			"rotation": {"angle": 0, "axis": "y", "origin": [7, 2, 7]},
			"faces": {
				"north": {"uv": [1.75, 6.5, 3.5, 6.75], "texture": "#0"},
				"east": {"uv": [0, 6.5, 1.75, 6.75], "texture": "#0"},
				"south": {"uv": [5.25, 6.5, 7, 6.75], "texture": "#0"},
				"west": {"uv": [3.5, 6.5, 5.25, 6.75], "texture": "#0"},
				"up": {"uv": [3.5, 6.5, 1.75, 4.75], "texture": "#0"},
				"down": {"uv": [5.25, 4.75, 3.5, 6.5], "texture": "#0"}
			}
		},
		{
			"from": [4.5, 6, 4.5],
			"to": [11.5, 7, 11.5],
			"rotation": {"angle": 0, "axis": "y", "origin": [7, 2, 7]},
			"faces": {
				"north": {"uv": [1.75, 4.5, 3.5, 4.75], "texture": "#0"},
				"east": {"uv": [0, 4.5, 1.75, 4.75], "texture": "#0"},
				"south": {"uv": [5.25, 4.5, 7, 4.75], "texture": "#0"},
				"west": {"uv": [3.5, 4.5, 5.25, 4.75], "texture": "#0"},
				"up": {"uv": [3.5, 4.5, 1.75, 2.75], "texture": "#0"},
				"down": {"uv": [5.25, 2.75, 3.5, 4.5], "texture": "#0"}
			}
		},
		{
			"from": [5, 5, 5],
			"to": [11, 6, 11],
			"rotation": {"angle": 0, "axis": "y", "origin": [7, 2, 7]},
			"faces": {
				"north": {"uv": [6.75, 4.25, 8.25, 4.5], "texture": "#0"},
				"east": {"uv": [5.25, 4.25, 6.75, 4.5], "texture": "#0"},
				"south": {"uv": [9.75, 4.25, 11.25, 4.5], "texture": "#0"},
				"west": {"uv": [8.25, 4.25, 9.75, 4.5], "texture": "#0"},
				"up": {"uv": [8.25, 4.25, 6.75, 2.75], "texture": "#0"},
				"down": {"uv": [9.75, 2.75, 8.25, 4.25], "texture": "#0"}
			}
		},
		{
			"from": [5.5, 8, 5.5],
			"to": [10.5, 9, 10.5],
			"rotation": {"angle": 0, "axis": "y", "origin": [7, 2, 7]},
			"faces": {
				"north": {"uv": [7.25, 1.25, 8.5, 1.5], "texture": "#0"},
				"east": {"uv": [6, 1.25, 7.25, 1.5], "texture": "#0"},
				"south": {"uv": [9.75, 1.25, 11, 1.5], "texture": "#0"},
				"west": {"uv": [8.5, 1.25, 9.75, 1.5], "texture": "#0"},
				"up": {"uv": [8.5, 1.25, 7.25, 0], "texture": "#0"},
				"down": {"uv": [9.75, 0, 8.5, 1.25], "texture": "#0"}
			}
		},
		{
			"from": [6, 7, 6],
			"to": [10, 8, 10],
			"rotation": {"angle": 0, "axis": "y", "origin": [7, 2, 7]},
			"faces": {
				"north": {"uv": [7, 7.5, 8, 7.75], "texture": "#0"},
				"east": {"uv": [6, 7.5, 7, 7.75], "texture": "#0"},
				"south": {"uv": [9, 7.5, 10, 7.75], "texture": "#0"},
				"west": {"uv": [8, 7.5, 9, 7.75], "texture": "#0"},
				"up": {"uv": [8, 7.5, 7, 6.5], "texture": "#0"},
				"down": {"uv": [9, 6.5, 8, 7.5], "texture": "#0"}
			}
		},
		{
			"from": [6.5, 9, 6.5],
			"to": [9.5, 10, 9.5],
			"rotation": {"angle": 0, "axis": "y", "origin": [7, 2, 7]},
			"faces": {
				"north": {"uv": [12, 1.25, 12.75, 1.5], "texture": "#0"},
				"east": {"uv": [11.25, 1.25, 12, 1.5], "texture": "#0"},
				"south": {"uv": [13.5, 1.25, 14.25, 1.5], "texture": "#0"},
				"west": {"uv": [12.75, 1.25, 13.5, 1.5], "texture": "#0"},
				"up": {"uv": [12.75, 1.25, 12, 0.5], "texture": "#0"},
				"down": {"uv": [13.5, 0.5, 12.75, 1.25], "texture": "#0"}
			}
		}
	],
	"display": {
		"thirdperson_righthand": {
			"rotation": [75, 45, 0],
			"translation": [0, 2.5, 0],
			"scale": [0.375, 0.375, 0.375]
		},
		"thirdperson_lefthand": {
			"rotation": [75, 45, 0],
			"translation": [0, 2.5, 0],
			"scale": [0.375, 0.375, 0.375]
		},
		"firstperson_righthand": {
			"rotation": [0, 45, 0],
			"scale": [0.4, 0.4, 0.4]
		},
		"firstperson_lefthand": {
			"rotation": [0, 225, 0],
			"scale": [0.4, 0.4, 0.4]
		},
		"ground": {
			"translation": [0, 3, 0],
			"scale": [0.25, 0.25, 0.25]
		},
		"gui": {
			"rotation": [30, 225, 0],
			"scale": [0.625, 0.625, 0.625]
		},
		"fixed": {
			"scale": [0.5, 0.5, 0.5]
		}
	}
}